<?xml version="1.0" encoding="UTF-8"?>
<svg width="126px" height="58px" viewBox="0 0 126 58" version="1.1" xmlns="http://www.w3.org/2000/svg" xmlns:xlink="http://www.w3.org/1999/xlink">
    <!-- Generator: Sketch 51.3 (57544) - http://www.bohemiancoding.com/sketch -->
    <title>icn / Back / light</title>
    <desc>Created with Sketch.</desc>
    <defs>
        <polygon id="path-1" points="35.7142857 71.43 160.711942 71.43 160.711942 128.571429 35.7142857 128.571429"></polygon>
    </defs>
    <g id="Symbols" stroke="none" stroke-width="1" fill="none" fill-rule="evenodd">
        <g id="nav/next" transform="translate(-248.000000, -71.000000)">
            <g id="icn-/-Back-/-light" transform="translate(309.000000, 100.000000) scale(-1, 1) translate(-309.000000, -100.000000) translate(209.000000, 0.000000)">
                <mask id="mask-2" fill="white">
                    <use xlink:href="#path-1"></use>
                </mask>
                <g id="Clip-2"></g>
                <path d="M157.876004,97.4014286 L45.4072545,97.4014286 L68.9697545,75.8585714 C69.493192,75.3942857 69.805692,74.7442857 69.805692,74.03 C69.805692,72.5871429 68.5322545,71.43 66.961942,71.43 C66.1885045,71.43 65.4697545,71.7157143 64.9541295,72.1942857 L36.5478795,98.1657143 C36.0322545,98.6371429 35.711942,99.2871429 35.711942,100.001429 C35.711942,100.715714 36.0322545,101.365714 36.5478795,101.837143 L64.9541295,127.808571 C65.4697545,128.28 66.1885045,128.572857 66.961942,128.572857 C68.5322545,128.572857 69.805692,127.408571 69.805692,125.972857 C69.805692,125.258571 69.493192,124.608571 68.9697545,124.137143 L45.4072545,102.601429 L157.876004,102.601429 C159.438504,102.601429 160.711942,101.437143 160.711942,100.001429 C160.711942,98.5657143 159.438504,97.4014286 157.876004,97.4014286" id="Fill-1" fill="#FFFFFF" fill-rule="evenodd" mask="url(#mask-2)"></path>
            </g>
        </g>
    </g>
</svg>